{"photoset":{"id":"72157655781310921","primary":"18955745644","owner":"101345974@N07","ownername":"Two Red Bowls","photo":[{"id":"19612023536","secret":"ff7003038b","server":"337","farm":1,"title":"japan instax | kiyomizu-dera","isprimary":"0","ispublic":1,"isfriend":0,"isfamily":0,"url_o":"https:\/\/farm1.staticflickr.com\/337\/19612023536_b116469f3d_o.jpg","height_o":"2024","width_o":"2727"},{"id":"19642458151","secret":"65fd947347","server":"344","farm":1,"title":"japan instax | dotonbori","isprimary":"0","ispublic":1,"isfriend":0,"isfamily":0,"url_o":"https:\/\/farm1.staticflickr.com\/344\/19642458151_7563568d9d_o.jpg","height_o":"1988","width_o":"2634"},{"id":"19391988739","secret":"1794958687","server":"481","farm":1,"title":"japan photos | chatei hatou","isprimary":"0","ispublic":1,"isfriend":0,"isfamily":0,"url_o":"https:\/\/farm1.staticflickr.com\/481\/19391988739_24acea8823_o.jpg","height_o":"3234","width_o":"2156"},{"id":"19392049899","secret":"e204f9c092","server":"3832","farm":4,"title":"japan photos | shibuya cafe","isprimary":"0","ispublic":1,"isfriend":0,"isfamily":0,"url_o":"https:\/\/farm4.staticflickr.com\/3832\/19392049899_7476d3349d_o.jpg","height_o":"2145","width_o":"3217"},{"id":"19631024062","secret":"ec500eedda","server":"340","farm":1,"title":"japan instax | umbrella wars","isprimary":"0","ispublic":1,"isfriend":0,"isfamily":0,"url_o":"https:\/\/farm1.staticflickr.com\/340\/19631024062_ffe4150de1_o.jpg","height_o":"2506","width_o":"1773"},{"id":"19390411030","secret":"c4e1c709f1","server":"322","farm":1,"title":"japan photos | near demachiyanagi","isprimary":"0","ispublic":1,"isfriend":0,"isfamily":0,"url_o":"https:\/\/farm1.staticflickr.com\/322\/19390411030_397c60cdc8_o.jpg","height_o":"3193","width_o":"2129"},{"id":"18957693463","secret":"481c3abeea","server":"416","farm":1,"title":"japan photos | yoyogi park","isprimary":"0","ispublic":1,"isfriend":0,"isfamily":0,"url_o":"https:\/\/farm1.staticflickr.com\/416\/18957693463_9aea51be51_o.jpg","height_o":"2145","width_o":"3217"},{"id":"19631015962","secret":"b24c83c67b","server":"510","farm":1,"title":"japan instax | nara park","isprimary":"0","ispublic":1,"isfriend":0,"isfamily":0,"url_o":"https:\/\/farm1.staticflickr.com\/510\/19631015962_f33f603c5d_o.jpg","height_o":"1923","width_o":"2569"},{"id":"19390458718","secret":"847d0f7746","server":"489","farm":1,"title":"japan photos | osaka castle","isprimary":"0","ispublic":1,"isfriend":0,"isfamily":0,"url_o":"https:\/\/farm1.staticflickr.com\/489\/19390458718_c724beab6d_o.jpg","height_o":"2138","width_o":"3207"},{"id":"19611959836","secret":"887929645e","server":"274","farm":1,"title":"japan instax | uji","isprimary":"0","ispublic":1,"isfriend":0,"isfamily":0,"url_o":"https:\/\/farm1.staticflickr.com\/274\/19611959836_6632ebd3b4_o.jpg","height_o":"1841","width_o":"2543"},{"id":"19552185656","secret":"9d958d18cc","server":"480","farm":1,"title":"japan photos | kibune","isprimary":"0","ispublic":1,"isfriend":0,"isfamily":0,"url_o":"https:\/\/farm1.staticflickr.com\/480\/19552185656_a31476fd1c_o.jpg","height_o":"2062","width_o":"3093"},{"id":"19391726979","secret":"f92d7c03a9","server":"479","farm":1,"title":"japan photos | kiyomizu-dera","isprimary":"0","ispublic":1,"isfriend":0,"isfamily":0,"url_o":"https:\/\/farm1.staticflickr.com\/479\/19391726979_27453267a9_o.jpg","height_o":"2111","width_o":"3166"},{"id":"19630928952","secret":"cebee7841f","server":"442","farm":1,"title":"japan instax | togetsukyo bridge","isprimary":"0","ispublic":1,"isfriend":0,"isfamily":0,"url_o":"https:\/\/farm1.staticflickr.com\/442\/19630928952_82c32bc927_o.jpg","height_o":"1779","width_o":"2419"},{"id":"18955997594","secret":"714456a357","server":"3772","farm":4,"title":"japan photos | chatei hatou-2","isprimary":"0","ispublic":1,"isfriend":0,"isfamily":0,"url_o":"https:\/\/farm4.staticflickr.com\/3772\/18955997594_9d5275bc84_o.jpg","height_o":"3025","width_o":"2017"},{"id":"19611855266","secret":"fc547eb9f6","server":"3677","farm":4,"title":"japan instax | pontocho","isprimary":"0","ispublic":1,"isfriend":0,"isfamily":0,"url_o":"https:\/\/farm4.staticflickr.com\/3677\/19611855266_4678c9a71e_o.jpg","height_o":"2392","width_o":"1792"},{"id":"18955800324","secret":"c8f797cef9","server":"529","farm":1,"title":"japan photos | kibune shrine","isprimary":"0","ispublic":1,"isfriend":0,"isfamily":0,"url_o":"https:\/\/farm1.staticflickr.com\/529\/18955800324_aac8976cff_o.jpg","height_o":"3255","width_o":"2170"},{"id":"19450170640","secret":"8059ec0d24","server":"553","farm":1,"title":"japan instax | osaka castle","isprimary":"0","ispublic":1,"isfriend":0,"isfamily":0,"url_o":"https:\/\/farm1.staticflickr.com\/553\/19450170640_1f55337ea9_o.jpg","height_o":"1959","width_o":"2639"},{"id":"19391658099","secret":"2f58599a55","server":"3806","farm":4,"title":"japan photos | asakusa","isprimary":"0","ispublic":1,"isfriend":0,"isfamily":0,"url_o":"https:\/\/farm4.staticflickr.com\/3806\/19391658099_c0370991db_o.jpg","height_o":"3138","width_o":"2092"},{"id":"19451608609","secret":"4ed77c349f","server":"479","farm":1,"title":"japan instax | togetsukyo bridge","isprimary":"0","ispublic":1,"isfriend":0,"isfamily":0,"url_o":"https:\/\/farm1.staticflickr.com\/479\/19451608609_c70558094a_o.jpg","height_o":"2095","width_o":"2799"},{"id":"19451592649","secret":"b67efe2f78","server":"536","farm":1,"title":"japan instax | wafflez","isprimary":"0","ispublic":1,"isfriend":0,"isfamily":0,"url_o":"https:\/\/farm1.staticflickr.com\/536\/19451592649_00d7b7b16c_o.jpg","height_o":"2634","width_o":"1869"},{"id":"19571460692","secret":"acb74c6f86","server":"493","farm":1,"title":"japan photos | cafe independants-3","isprimary":"0","ispublic":1,"isfriend":0,"isfamily":0,"url_o":"https:\/\/farm1.staticflickr.com\/493\/19571460692_1a7b33fb7b_o.jpg","height_o":"2111","width_o":"3166"},{"id":"19450157888","secret":"3def8e6e60","server":"294","farm":1,"title":"japan instax | sannenzaka","isprimary":"0","ispublic":1,"isfriend":0,"isfamily":0,"url_o":"https:\/\/farm1.staticflickr.com\/294\/19450157888_89e5384ea2_o.jpg","height_o":"2243","width_o":"1645"},{"id":"19450133598","secret":"2503dc0c55","server":"3810","farm":4,"title":"japan instax | kinkaku-ji","isprimary":"0","ispublic":1,"isfriend":0,"isfamily":0,"url_o":"https:\/\/farm4.staticflickr.com\/3810\/19450133598_2638d881ff_o.jpg","height_o":"1895","width_o":"2576"},{"id":"18955725624","secret":"8d1922bbe0","server":"500","farm":1,"title":"japan photos | jizo","isprimary":"0","ispublic":1,"isfriend":0,"isfamily":0,"url_o":"https:\/\/farm1.staticflickr.com\/500\/18955725624_17edc0291c_o.jpg","height_o":"2111","width_o":"3166"},{"id":"19582802781","secret":"2be8425156","server":"446","farm":1,"title":"japan photos | uji-5","isprimary":"0","ispublic":1,"isfriend":0,"isfamily":0,"url_o":"https:\/\/farm1.staticflickr.com\/446\/19582802781_8ea324eaf2_o.jpg","height_o":"2120","width_o":"3180"},{"id":"19400001288","secret":"2b68f59141","server":"425","farm":1,"title":"japan instax | kiyomizu-dera","isprimary":"0","ispublic":1,"isfriend":0,"isfamily":0,"url_o":"https:\/\/farm1.staticflickr.com\/425\/19400001288_d42826b02f_o.jpg","height_o":"3400","width_o":"2267"},{"id":"19400005268","secret":"894eab706a","server":"3734","farm":4,"title":"japan instax | ninenzaka","isprimary":"0","ispublic":1,"isfriend":0,"isfamily":0,"url_o":"https:\/\/farm4.staticflickr.com\/3734\/19400005268_f94eb27414_o.jpg","height_o":"2240","width_o":"3360"},{"id":"19582514701","secret":"91a5c8360e","server":"550","farm":1,"title":"japan photos | tsukiji fish market","isprimary":"0","ispublic":1,"isfriend":0,"isfamily":0,"url_o":"https:\/\/farm1.staticflickr.com\/550\/19582514701_24c6187b32_o.jpg","height_o":"2143","width_o":"3214"},{"id":"19390589670","secret":"03bcc95360","server":"448","farm":1,"title":"japan photos | airbnb goodies","isprimary":"0","ispublic":1,"isfriend":0,"isfamily":0,"url_o":"https:\/\/farm1.staticflickr.com\/448\/19390589670_35d01f0311_o.jpg","height_o":"3180","width_o":"2120"},{"id":"19390251518","secret":"477687cb6b","server":"385","farm":1,"title":"japan photos | asakusa","isprimary":"0","ispublic":1,"isfriend":0,"isfamily":0,"url_o":"https:\/\/farm1.staticflickr.com\/385\/19390251518_c185310533_o.jpg","height_o":"2164","width_o":"3246"},{"id":"19571358562","secret":"e64101d1cd","server":"361","farm":1,"title":"japan photos | jazz at vagabond","isprimary":"0","ispublic":1,"isfriend":0,"isfamily":0,"url_o":"https:\/\/farm1.staticflickr.com\/361\/19571358562_a456bd0283_o.jpg","height_o":"2126","width_o":"3189"},{"id":"19582653511","secret":"244765a373","server":"450","farm":1,"title":"japan photos | kibune","isprimary":"0","ispublic":1,"isfriend":0,"isfamily":0,"url_o":"https:\/\/farm1.staticflickr.com\/450\/19582653511_d1354b16ee_o.jpg","height_o":"1964","width_o":"2946"},{"id":"19552443206","secret":"f934c9c292","server":"473","farm":1,"title":"japan photos | yoyogi park-3","isprimary":"0","ispublic":1,"isfriend":0,"isfamily":0,"url_o":"https:\/\/farm1.staticflickr.com\/473\/19552443206_9cf02eb72e_o.jpg","height_o":"2145","width_o":"3217"},{"id":"19390557388","secret":"503a11d361","server":"3716","farm":4,"title":"japan photos | uji-8","isprimary":"0","ispublic":1,"isfriend":0,"isfamily":0,"url_o":"https:\/\/farm4.staticflickr.com\/3716\/19390557388_5e1196b607_o.jpg","height_o":"2120","width_o":"3180"},{"id":"19571689512","secret":"4e55d571a0","server":"352","farm":1,"title":"japan photos | chatei hatou-3","isprimary":"0","ispublic":1,"isfriend":0,"isfamily":0,"url_o":"https:\/\/farm1.staticflickr.com\/352\/19571689512_5204118eda_o.jpg","height_o":"2159","width_o":"3239"},{"id":"19446097009","secret":"23a69975a1","server":"342","farm":1,"title":"japan instax | three star consignment","isprimary":"0","ispublic":1,"isfriend":0,"isfamily":0,"url_o":"https:\/\/farm1.staticflickr.com\/342\/19446097009_f127fca6a4_o.jpg","height_o":"1341","width_o":"2009"},{"id":"19015394144","secret":"4750604f6e","server":"283","farm":1,"title":"japan instax | tenryuji","isprimary":"0","ispublic":1,"isfriend":0,"isfamily":0,"url_o":"https:\/\/farm1.staticflickr.com\/283\/19015394144_404ef471b2_o.jpg","height_o":"1043","width_o":"1456"},{"id":"19391689159","secret":"b1f99d3458","server":"264","farm":1,"title":"japan photos | kyoto","isprimary":"0","ispublic":1,"isfriend":0,"isfamily":0,"url_o":"https:\/\/farm1.staticflickr.com\/264\/19391689159_c8273da76b_o.jpg","height_o":"2158","width_o":"3237"},{"id":"19552384326","secret":"0b01408274","server":"533","farm":1,"title":"japan photos | snazzy hats","isprimary":"0","ispublic":1,"isfriend":0,"isfamily":0,"url_o":"https:\/\/farm1.staticflickr.com\/533\/19552384326_7c448e4d63_o.jpg","height_o":"2156","width_o":"3234"},{"id":"19390391850","secret":"cc417f8bc4","server":"427","farm":1,"title":"japan photos | kibune","isprimary":"0","ispublic":1,"isfriend":0,"isfamily":0,"url_o":"https:\/\/farm1.staticflickr.com\/427\/19390391850_224861a0a2_o.jpg","height_o":"3212","width_o":"2141"},{"id":"18955729144","secret":"abc49f9d64","server":"255","farm":1,"title":"japan photos | kiyomizu-dera","isprimary":"0","ispublic":1,"isfriend":0,"isfamily":0,"url_o":"https:\/\/farm1.staticflickr.com\/255\/18955729144_70ba19eab3_o.jpg","height_o":"2111","width_o":"3166"},{"id":"19450146768","secret":"e415285d8e","server":"3695","farm":4,"title":"japan instax | dotonbori","isprimary":"0","ispublic":1,"isfriend":0,"isfamily":0,"url_o":"https:\/\/farm4.staticflickr.com\/3695\/19450146768_527954a5d0_o.jpg","height_o":"2016","width_o":"2779"},{"id":"19571722922","secret":"5fd90f73f5","server":"335","farm":1,"title":"japan photos | ghibli","isprimary":"0","ispublic":1,"isfriend":0,"isfamily":0,"url_o":"https:\/\/farm1.staticflickr.com\/335\/19571722922_b741c98733_o.jpg","height_o":"2150","width_o":"3225"},{"id":"19450094328","secret":"e283f06aa3","server":"293","farm":1,"title":"japan instax | ichiran ramen","isprimary":"0","ispublic":1,"isfriend":0,"isfamily":0,"url_o":"https:\/\/farm1.staticflickr.com\/293\/19450094328_33a9a18577_o.jpg","height_o":"2037","width_o":"2813"},{"id":"19552246676","secret":"c5cb0f9379","server":"346","farm":1,"title":"japan photos | osaka castle-2","isprimary":"0","ispublic":1,"isfriend":0,"isfamily":0,"url_o":"https:\/\/farm1.staticflickr.com\/346\/19552246676_ffaea3d875_o.jpg","height_o":"1655","width_o":"2482"},{"id":"18957508693","secret":"0d924f3ca8","server":"326","farm":1,"title":"japan photos | osaka castle wall","isprimary":"0","ispublic":1,"isfriend":0,"isfamily":0,"url_o":"https:\/\/farm1.staticflickr.com\/326\/18957508693_280a3c6130_o.jpg","height_o":"2085","width_o":"3127"},{"id":"19450161470","secret":"60f8c7f76e","server":"334","farm":1,"title":"japan instax | uji","isprimary":"0","ispublic":1,"isfriend":0,"isfamily":0,"url_o":"https:\/\/farm1.staticflickr.com\/334\/19450161470_9fe05489bf_o.jpg","height_o":"1859","width_o":"2506"},{"id":"19571579172","secret":"6709727a3f","server":"382","farm":1,"title":"japan photos | ramen sen no kaze-2","isprimary":"0","ispublic":1,"isfriend":0,"isfamily":0,"url_o":"https:\/\/farm1.staticflickr.com\/382\/19571579172_0fc3f6c8ff_o.jpg","height_o":"2129","width_o":"3193"},{"id":"19578484355","secret":"bc8864c79c","server":"3734","farm":4,"title":"japan photos | uji-3","isprimary":"0","ispublic":1,"isfriend":0,"isfamily":0,"url_o":"https:\/\/farm4.staticflickr.com\/3734\/19578484355_997d23db34_o.jpg","height_o":"3180","width_o":"2120"},{"id":"19552248846","secret":"edb127549f","server":"493","farm":1,"title":"japan photos | osaka castle-3","isprimary":"0","ispublic":1,"isfriend":0,"isfamily":0,"url_o":"https:\/\/farm1.staticflickr.com\/493\/19552248846_7ced2c6a3c_o.jpg","height_o":"2085","width_o":"3127"},{"id":"19642493771","secret":"f16eb2437f","server":"307","farm":1,"title":"japan instax | yoyogi park","isprimary":"0","ispublic":1,"isfriend":0,"isfamily":0,"url_o":"https:\/\/farm1.staticflickr.com\/307\/19642493771_0d7acd2684_o.jpg","height_o":"1924","width_o":"2598"},{"id":"19578221225","secret":"777696d37a","server":"477","farm":1,"title":"japan photos | shinkansen to kyoto","isprimary":"0","ispublic":1,"isfriend":0,"isfamily":0,"url_o":"https:\/\/farm1.staticflickr.com\/477\/19578221225_03915f9c97_o.jpg","height_o":"2078","width_o":"3117"},{"id":"19611795336","secret":"f0a1ce7475","server":"414","farm":1,"title":"japan instax | osaka castle park","isprimary":"0","ispublic":1,"isfriend":0,"isfamily":0,"url_o":"https:\/\/farm1.staticflickr.com\/414\/19611795336_c2805f08e3_o.jpg","height_o":"1041","width_o":"1437"},{"id":"19552292356","secret":"992beaeb80","server":"464","farm":1,"title":"japan photos | ramen sen no kaze-4","isprimary":"0","ispublic":1,"isfriend":0,"isfamily":0,"url_o":"https:\/\/farm1.staticflickr.com\/464\/19552292356_be3670d78c_o.jpg","height_o":"3132","width_o":"2088"},{"id":"19583397691","secret":"df97ee3a24","server":"3777","farm":4,"title":"japan instax | kiyomizu","isprimary":"0","ispublic":1,"isfriend":0,"isfamily":0,"url_o":"https:\/\/farm4.staticflickr.com\/3777\/19583397691_974dc0bf8f_o.jpg","height_o":"2418","width_o":"3622"},{"id":"19390404798","secret":"e29b62e36c","server":"311","farm":1,"title":"japan photos | kiln coffee","isprimary":"0","ispublic":1,"isfriend":0,"isfamily":0,"url_o":"https:\/\/farm1.staticflickr.com\/311\/19390404798_54959e0032_o.jpg","height_o":"2129","width_o":"3193"},{"id":"19425761608","secret":"7296c4eaba","server":"3785","farm":4,"title":"japan instax | nara park","isprimary":"0","ispublic":1,"isfriend":0,"isfamily":0,"url_o":"https:\/\/farm4.staticflickr.com\/3785\/19425761608_6a0906e269_o.jpg","height_o":"3420","width_o":"2283"},{"id":"19390375268","secret":"1cbeb19729","server":"389","farm":1,"title":"japan photos | musoshin","isprimary":"0","ispublic":1,"isfriend":0,"isfamily":0,"url_o":"https:\/\/farm1.staticflickr.com\/389\/19390375268_064264748c_o.jpg","height_o":"2090","width_o":"3135"},{"id":"19571715902","secret":"687cc752f7","server":"326","farm":1,"title":"japan photos | kichijoji-2","isprimary":"0","ispublic":1,"isfriend":0,"isfamily":0,"url_o":"https:\/\/farm1.staticflickr.com\/326\/19571715902_55ee3a8ff9_o.jpg","height_o":"3172","width_o":"2115"},{"id":"19390433110","secret":"77a22b5542","server":"3743","farm":4,"title":"japan photos | daimaru-4","isprimary":"0","ispublic":1,"isfriend":0,"isfamily":0,"url_o":"https:\/\/farm4.staticflickr.com\/3743\/19390433110_6140ff5873_o.jpg","height_o":"2157","width_o":"3236"},{"id":"19642579251","secret":"dbfc76a459","server":"431","farm":1,"title":"japan instax | nara park","isprimary":"0","ispublic":1,"isfriend":0,"isfamily":0,"url_o":"https:\/\/farm1.staticflickr.com\/431\/19642579251_0597fa0465_o.jpg","height_o":"2033","width_o":"2719"},{"id":"19552335636","secret":"da5baf6681","server":"492","farm":1,"title":"japan photos | uji-6","isprimary":"0","ispublic":1,"isfriend":0,"isfamily":0,"url_o":"https:\/\/farm1.staticflickr.com\/492\/19552335636_c346e6df27_o.jpg","height_o":"2120","width_o":"3180"},{"id":"18957708363","secret":"8c611fb6f0","server":"336","farm":1,"title":"japan photos | airport food :D","isprimary":"0","ispublic":1,"isfriend":0,"isfamily":0,"url_o":"https:\/\/farm1.staticflickr.com\/336\/18957708363_4baca92467_o.jpg","height_o":"3217","width_o":"2145"},{"id":"19582728011","secret":"7d15ba2217","server":"559","farm":1,"title":"japan photos | dotonburi","isprimary":"0","ispublic":1,"isfriend":0,"isfamily":0,"url_o":"https:\/\/farm1.staticflickr.com\/559\/19582728011_57af008778_o.jpg","height_o":"2138","width_o":"3207"},{"id":"19631109922","secret":"fde959fb1c","server":"416","farm":1,"title":"japan instax | kurama shrine","isprimary":"0","ispublic":1,"isfriend":0,"isfamily":0,"url_o":"https:\/\/farm1.staticflickr.com\/416\/19631109922_a6766b10d2_o.jpg","height_o":"1980","width_o":"2657"},{"id":"19450052958","secret":"8507263010","server":"433","farm":1,"title":"japan instax | intense coffees","isprimary":"0","ispublic":1,"isfriend":0,"isfamily":0,"url_o":"https:\/\/farm1.staticflickr.com\/433\/19450052958_cfcb2377b6_o.jpg","height_o":"2711","width_o":"1984"},{"id":"19451532869","secret":"d27b2a6373","server":"281","farm":1,"title":"japan instax | uji","isprimary":"0","ispublic":1,"isfriend":0,"isfamily":0,"url_o":"https:\/\/farm1.staticflickr.com\/281\/19451532869_d032c75ce3_o.jpg","height_o":"2023","width_o":"2747"},{"id":"19578462685","secret":"4bf6007029","server":"466","farm":1,"title":"japan photos | salon du the francois","isprimary":"0","ispublic":1,"isfriend":0,"isfamily":0,"url_o":"https:\/\/farm1.staticflickr.com\/466\/19578462685_3c09fdf2a7_o.jpg","height_o":"2129","width_o":"3193"},{"id":"19390306460","secret":"5150489379","server":"3678","farm":4,"title":"japan photos | hanamikoji dori","isprimary":"0","ispublic":1,"isfriend":0,"isfamily":0,"url_o":"https:\/\/farm4.staticflickr.com\/3678\/19390306460_6f577f6553_o.jpg","height_o":"2152","width_o":"3228"},{"id":"18955918874","secret":"623294d285","server":"343","farm":1,"title":"japan photos | salon du the francois-2","isprimary":"0","ispublic":1,"isfriend":0,"isfamily":0,"url_o":"https:\/\/farm1.staticflickr.com\/343\/18955918874_ae0af8851f_o.jpg","height_o":"3193","width_o":"2129"},{"id":"19578423505","secret":"0fcb8c316a","server":"334","farm":1,"title":"japan photos | dotonburi-2","isprimary":"0","ispublic":1,"isfriend":0,"isfamily":0,"url_o":"https:\/\/farm1.staticflickr.com\/334\/19578423505_aca94fd6d1_o.jpg","height_o":"2129","width_o":"3193"},{"id":"18955954944","secret":"8b8591378a","server":"3795","farm":4,"title":"japan photos | uji","isprimary":"0","ispublic":1,"isfriend":0,"isfamily":0,"url_o":"https:\/\/farm4.staticflickr.com\/3795\/18955954944_6945447697_o.jpg","height_o":"2076","width_o":"3114"},{"id":"19578188415","secret":"180af29d15","server":"420","farm":1,"title":"japan photos | asakusa","isprimary":"0","ispublic":1,"isfriend":0,"isfamily":0,"url_o":"https:\/\/farm1.staticflickr.com\/420\/19578188415_007c792e57_o.jpg","height_o":"2099","width_o":"3148"},{"id":"19390522068","secret":"ed2de21f09","server":"548","farm":1,"title":"japan photos | nara park","isprimary":"0","ispublic":1,"isfriend":0,"isfamily":0,"url_o":"https:\/\/farm1.staticflickr.com\/548\/19390522068_fc99cbaa2a_o.jpg","height_o":"3133","width_o":"2089"},{"id":"19571330332","secret":"9e05eab659","server":"444","farm":1,"title":"japan photos | tsukemen in sasazuka","isprimary":"0","ispublic":1,"isfriend":0,"isfamily":0,"url_o":"https:\/\/farm1.staticflickr.com\/444\/19571330332_678fb83389_o.jpg","height_o":"3264","width_o":"2176"},{"id":"19390349728","secret":"02ea6849f7","server":"327","farm":1,"title":"japan photos | fushimi inari taisha","isprimary":"0","ispublic":1,"isfriend":0,"isfamily":0,"url_o":"https:\/\/farm1.staticflickr.com\/327\/19390349728_1bea9dcfc1_o.jpg","height_o":"3073","width_o":"2049"},{"id":"18955938274","secret":"fd398dabdd","server":"550","farm":1,"title":"japan photos | uji-4","isprimary":"0","ispublic":1,"isfriend":0,"isfamily":0,"url_o":"https:\/\/farm1.staticflickr.com\/550\/18955938274_221223bd18_o.jpg","height_o":"1948","width_o":"1947"},{"id":"18957450863","secret":"e7abce1b9f","server":"423","farm":1,"title":"japan photos | hike from kibune to kurama","isprimary":"0","ispublic":1,"isfriend":0,"isfamily":0,"url_o":"https:\/\/farm1.staticflickr.com\/423\/18957450863_1bc1381e86_o.jpg","height_o":"3179","width_o":"2119"},{"id":"19571622472","secret":"ab286d58f6","server":"398","farm":1,"title":"japan photos | uji-2","isprimary":"0","ispublic":1,"isfriend":0,"isfamily":0,"url_o":"https:\/\/farm1.staticflickr.com\/398\/19571622472_9d3793c757_o.jpg","height_o":"3157","width_o":"2105"},{"id":"19017075973","secret":"de511068e2","server":"433","farm":1,"title":"japan instax | kurama shrine","isprimary":"0","ispublic":1,"isfriend":0,"isfamily":0,"url_o":"https:\/\/farm1.staticflickr.com\/433\/19017075973_bc0e78b333_o.jpg","height_o":"1838","width_o":"2415"}],"page":"1","per_page":"80","perpage":"80","pages":3,"total":"187","title":"Japan"},"stat":"ok"}